^D:\PROJECT FILES\VISUAL C++\SITOERATOSTENESA\SITOERATOSTENESA\SOURCE.CPP
D:\PROJECT FILES\VISUAL C++\SITOERATOSTENESA\SITOERATOSTENESA\DEBUG\VC141.PDB
D:\PROJECT FILES\VISUAL C++\SITOERATOSTENESA\SITOERATOSTENESA\DEBUG\VC141.IDB
D:\PROJECT FILES\VISUAL C++\SITOERATOSTENESA\SITOERATOSTENESA\DEBUG\SOURCE.OBJ
