^D:\PROJECT FILES\VISUAL C++\SITOERATOSTENESA\SITOERATOSTENESA\DEBUG\SOURCE.OBJ
D:\PROJECT FILES\VISUAL C++\SITOERATOSTENESA\DEBUG\SITOERATOSTENESA.EXE
D:\PROJECT FILES\VISUAL C++\SITOERATOSTENESA\DEBUG\SITOERATOSTENESA.ILK
D:\PROJECT FILES\VISUAL C++\SITOERATOSTENESA\DEBUG\SITOERATOSTENESA.PDB
